<?xml version="1.0" encoding="UTF-8" standalone="no"?>
<!-- Created with Inkscape (http://www.inkscape.org/) -->

<svg
   xmlns:dc="http://purl.org/dc/elements/1.1/"
   xmlns:cc="http://creativecommons.org/ns#"
   xmlns:rdf="http://www.w3.org/1999/02/22-rdf-syntax-ns#"
   xmlns:svg="http://www.w3.org/2000/svg"
   xmlns="http://www.w3.org/2000/svg"
   xmlns:sodipodi="http://sodipodi.sourceforge.net/DTD/sodipodi-0.dtd"
   xmlns:inkscape="http://www.inkscape.org/namespaces/inkscape"
   version="1.1"
   id="svg2"
   xml:space="preserve"
   width="1133.8586"
   height="264.56668"
   viewBox="0 0 1133.8586 264.56668"
   sodipodi:docname="documenter.svg"
   inkscape:version="0.92.4 (5da689c313, 2019-01-14)"><metadata
     id="metadata8"><rdf:RDF><cc:Work
         rdf:about=""><dc:format>image/svg+xml</dc:format><dc:type
           rdf:resource="http://purl.org/dc/dcmitype/StillImage" /><dc:title></dc:title></cc:Work></rdf:RDF></metadata><defs
     id="defs6"><clipPath
       clipPathUnits="userSpaceOnUse"
       id="clipPath18"><path
         d="M 0,198.425 H 850.394 V 0 H 0 Z"
         id="path16"
         inkscape:connector-curvature="0" /></clipPath></defs><sodipodi:namedview
     pagecolor="#ffffff"
     bordercolor="#666666"
     borderopacity="1"
     objecttolerance="10"
     gridtolerance="10"
     guidetolerance="10"
     inkscape:pageopacity="0"
     inkscape:pageshadow="2"
     inkscape:window-width="1600"
     inkscape:window-height="838"
     id="namedview4"
     showgrid="true"
     inkscape:zoom="0.88804726"
     inkscape:cx="527.24494"
     inkscape:cy="188.7946"
     inkscape:window-x="-8"
     inkscape:window-y="-8"
     inkscape:window-maximized="1"
     inkscape:current-layer="g14"><inkscape:grid
       type="xygrid"
       id="grid906"
       units="mm"
       spacingx="3.7795275"
       spacingy="3.7795275"
       empspacing="10" /></sodipodi:namedview><g
     id="g10"
     inkscape:groupmode="layer"
     inkscape:label="documenter"
     transform="matrix(1.3333333,0,0,-1.3333333,0,264.56667)"><g
       id="g12"><g
         id="g14"
         clip-path="url(#clipPath18)"><g
           id="g20"
           transform="translate(68.6564,104.8037)"><path
             d="m 0,0 -5.453,0.065 v 10.878 h 5.73 c 3.429,0 5.028,-0.346 5.763,-0.635 C 6.944,9.951 7.659,9.356 8.225,8.491 8.808,7.597 9.092,6.625 9.092,5.518 9.092,4.428 8.807,3.458 8.22,2.553 7.655,1.682 6.9,1.071 5.91,0.685 5.109,0.373 3.429,0 0,0 m 7.788,19.135 c -1.991,0.497 -5.597,0.739 -11.021,0.739 h -11.274 v -49.808 h 9.054 V -8.87 h 0.969 c 5.849,0 9.786,0.26 12.036,0.795 3.291,0.787 5.929,2.377 7.841,4.728 1.927,2.369 2.905,5.352 2.905,8.865 0,3.537 -0.996,6.539 -2.961,8.922 -1.936,2.346 -4.476,3.926 -7.549,4.695"
             style="fill:#40bfe8;fill-opacity:1;fill-rule:nonzero;stroke:none"
             id="path22"
             inkscape:connector-curvature="0" /></g><g
           id="g24"
           transform="translate(106.2267,104.6816)"><path
             d="m 0,0 -5.535,0.044 v 10.869 h 5.7 c 3.676,0 5.212,-0.402 5.799,-0.642 C 6.864,9.904 7.58,9.307 8.151,8.446 8.729,7.576 9.01,6.638 9.01,5.579 9.01,4.441 8.731,3.451 8.16,2.554 7.615,1.7 6.862,1.093 5.857,0.699 5.042,0.38 3.361,0 0,0 m 10.202,-7.223 c 2.576,1.149 4.592,2.864 5.989,5.095 1.384,2.21 2.086,4.802 2.086,7.707 0,3.482 -1.029,6.482 -3.06,8.916 -2.008,2.406 -4.633,3.992 -7.803,4.713 -1.975,0.448 -5.484,0.666 -10.728,0.666 h -11.274 v -49.808 h 9.053 V -8.87 h 2.358 L 9.797,-29.934 H 20.681 L 7.349,-8.29 c 0.9,0.264 1.849,0.62 2.853,1.067"
             style="fill:#40bfe8;fill-opacity:1;fill-rule:nonzero;stroke:none"
             id="path26"
             inkscape:connector-curvature="0" /></g><g
           id="g28"
           transform="translate(136.8976,99.0874)"><path
             d="m 0,0 c 0,3.21 0.744,6.158 2.212,8.763 1.479,2.625 3.497,4.654 6.168,6.202 2.638,1.53 5.454,2.305 8.372,2.305 3.002,0 5.878,-0.777 8.549,-2.31 2.702,-1.55 4.734,-3.558 6.213,-6.136 1.462,-2.551 2.203,-5.448 2.203,-8.61 0,-2.479 -0.743,-5.045 -2.208,-7.627 -1.478,-2.605 -3.488,-4.608 -6.144,-6.127 -2.631,-1.503 -5.529,-2.265 -8.613,-2.265 -4.716,0 -8.619,1.448 -11.933,4.425 C 1.576,-8.465 0,-4.743 0,0 m 35.339,18.734 c -5.028,4.995 -11.344,7.528 -18.771,7.528 -4.616,0 -8.973,-1.165 -12.949,-3.464 C -0.364,20.495 -3.543,17.266 -5.83,13.201 -8.11,9.151 -9.267,4.709 -9.267,0 c 0,-6.399 2.557,-12.185 7.599,-17.193 5.038,-5.005 11.297,-7.543 18.603,-7.543 7.172,0 13.349,2.349 18.361,6.982 5.06,4.681 7.627,10.727 7.627,17.968 0,7.29 -2.552,13.522 -7.584,18.52"
             style="fill:#40bfe8;fill-opacity:1;fill-rule:nonzero;stroke:none"
             id="path30"
             inkscape:connector-curvature="0" /></g><g
           id="g32"
           transform="translate(190.0314,86.0249)"><path
             d="m 0,0 c 0.068,-2.709 -0.828,-5.577 -2.665,-8.527 -1.992,-3.196 -4.176,-6.02 -6.491,-8.394 l -1.616,-1.656 1.688,-1.581 c 0.589,-0.553 1.552,-1.596 2.862,-3.102 l 1.7,-1.951 1.711,1.94 c 3.759,4.258 6.575,7.936 8.367,10.929 1.892,3.163 3.013,6.321 3.332,9.387 l 0.011,42.097 h -8.9 z"
             style="fill:#40bfe8;fill-opacity:1;fill-rule:nonzero;stroke:none"
             id="path34"
             inkscape:connector-curvature="0" /></g><g
           id="g36"
           transform="translate(233.4494,124.5556)"><path
             d="M 0,0 H -29.896 V -49.808 H 0.405 v 9.023 h -21.247 v 13.232 h 13.066 v 8.931 h -13.066 v 9.63 H 0 Z"
             style="fill:#40bfe8;fill-opacity:1;fill-rule:nonzero;stroke:none"
             id="path38"
             inkscape:connector-curvature="0" /></g><g
           id="g40"
           transform="translate(236.4513,115.5634)"><path
             d="M 0,0 C 3.654083,0.10181811 7.4280414,0.06314871 10.615,0.061 V -40.816 H 19.76 V 0.061 h 10.136 v 8.931 c -9.941989,0 -19.9995553,0 -29.896,0 z"
             style="fill:#40bfe8;fill-opacity:1;fill-rule:nonzero;stroke:none"
             id="path42"
             inkscape:connector-curvature="0"
             sodipodi:nodetypes="ccccccccc" /></g><g
           id="g44"
           transform="translate(284.4123,104.0576)"><path
             d="m 0,0 c -4.368,3.215 -5.373,4.096 -5.634,4.356 -1.093,1.052 -1.555,1.811 -1.753,2.263 -0.283,0.652 -0.422,1.295 -0.422,1.964 0,0.984 0.33,1.759 1.039,2.437 0.74,0.706 1.659,1.035 2.891,1.035 1.014,0 1.92,-0.248 2.769,-0.759 0.65,-0.391 1.819,-1.379 3.694,-3.865 l 1.364,-1.807 7.294,5.486 -1.326,1.807 c -2.284,3.113 -4.438,5.229 -6.587,6.469 -2.192,1.265 -4.576,1.906 -7.086,1.906 -2.392,0 -4.644,-0.572 -6.694,-1.701 -2.077,-1.142 -3.709,-2.716 -4.852,-4.677 -1.135,-1.953 -1.712,-4.144 -1.712,-6.514 0,-2.999 0.967,-5.792 2.821,-8.228 0.666,-0.953 2.17,-2.686 7.517,-6.711 l 0.26,-0.169 c 3.449,-1.92 5.816,-3.769 7.025,-5.479 0.754,-1.086 1.121,-2.12 1.121,-3.163 0,-0.942 -0.237,-1.805 -0.725,-2.638 -0.48,-0.818 -1.187,-1.467 -2.159,-1.983 -1.02,-0.541 -2.08,-0.804 -3.242,-0.804 -2.63,0 -5.114,2.117 -7.379,6.293 l -1.132,2.085 -7.738,-4.664 1.038,-1.906 c 2.044,-3.757 4.372,-6.506 6.917,-8.171 2.602,-1.704 5.546,-2.569 8.752,-2.569 4.155,0 7.743,1.438 10.662,4.275 2.937,2.854 4.426,6.287 4.426,10.204 0,2.76 -0.892,5.32 -2.652,7.609 C 6.9,-5.541 4.122,-3.049 0,0"
             style="fill:#40bfe8;fill-opacity:1;fill-rule:nonzero;stroke:none"
             id="path46"
             inkscape:connector-curvature="0" /></g><g
           id="g48"
           transform="translate(348.2883,124.3447)"><path
             d="M 0,0 -10.158,13.267 H -23.526 L -9.75,0 Z"
             style="fill:#4c4b49;fill-opacity:1;fill-rule:nonzero;stroke:none"
             id="path50"
             inkscape:connector-curvature="0" /></g><g
           id="g52"
           transform="translate(332.5519,97.7827)"><path
             d="M 0,0 4.076,7.899 8.089,0 Z m 2.157,23.995 -23.724,-46.297 h 10.162 l 7.051,13.738 H 12.42 l 7.113,-13.738 h 9.89 L 6.037,23.995 Z"
             style="fill:#4c4b49;fill-opacity:1;fill-rule:nonzero;stroke:none"
             id="path54"
             inkscape:connector-curvature="0" /></g><g
           id="g56"
           transform="translate(388.9777,115.7466)"><path
             d="m 0,0 h 0.937 c 6.235,0 10.726,-0.408 13.359,-1.216 3.304,-0.995 5.796,-2.78 7.618,-5.455 1.835,-2.696 2.766,-6.036 2.766,-9.928 0,-3.691 -0.855,-6.821 -2.54,-9.304 -1.677,-2.473 -3.917,-4.136 -6.836,-5.079 -1.519,-0.482 -4.895,-1.055 -12.352,-1.055 H 0 Z M 18.309,7.15 C 14.958,8.349 9.875,8.931 2.77,8.931 H -8.87 V -40.877 H 7.807 c 6.065,0 10.709,0.889 14.194,2.717 3.5,1.835 6.377,4.707 8.552,8.536 2.151,3.788 3.241,8.191 3.241,13.087 0,5.673 -1.371,10.654 -4.076,14.807 -2.741,4.208 -6.586,7.198 -11.409,8.88"
             style="fill:#4c4b49;fill-opacity:1;fill-rule:nonzero;stroke:none"
             id="path58"
             inkscape:connector-curvature="0" /></g><g
           id="g60"
           transform="translate(434.2502,99.0874)"><path
             d="m 0,0 c 0,3.21 0.744,6.158 2.212,8.763 1.479,2.625 3.497,4.654 6.168,6.202 2.638,1.53 5.454,2.305 8.372,2.305 3.002,0 5.878,-0.777 8.549,-2.31 2.702,-1.55 4.734,-3.558 6.213,-6.136 1.462,-2.551 2.203,-5.448 2.203,-8.61 0,-2.479 -0.743,-5.045 -2.208,-7.627 -1.478,-2.605 -3.488,-4.608 -6.144,-6.127 -2.631,-1.503 -5.529,-2.265 -8.613,-2.265 -4.716,0 -8.619,1.448 -11.933,4.425 C 1.576,-8.465 0,-4.743 0,0 M 16.568,26.262 C 11.952,26.262 7.595,25.097 3.619,22.798 -0.364,20.495 -3.543,17.266 -5.83,13.201 -8.11,9.151 -9.267,4.709 -9.267,0 c 0,-6.399 2.557,-12.185 7.599,-17.193 5.038,-5.005 11.297,-7.543 18.603,-7.543 7.172,0 13.349,2.349 18.361,6.982 5.06,4.681 7.627,10.727 7.627,17.968 0,7.29 -2.552,13.522 -7.584,18.52 -5.028,4.995 -11.344,7.528 -18.771,7.528"
             style="fill:#4c4b49;fill-opacity:1;fill-rule:nonzero;stroke:none"
             id="path62"
             inkscape:connector-curvature="0" /></g><g
           id="g64"
           transform="translate(520.7756,89.8169)"><path
             d="m 0,0 c -3.837,-4.479 -8.476,-6.657 -14.183,-6.657 -5.232,0 -9.422,1.465 -12.809,4.479 -3.31,2.945 -4.918,6.749 -4.918,11.631 0,3.24 0.754,6.179 2.241,8.735 1.507,2.59 3.571,4.599 6.312,6.141 2.714,1.528 5.719,2.303 8.93,2.303 2.942,0 5.67,-0.589 8.108,-1.75 2.417,-1.15 4.515,-2.88 6.238,-5.141 l 1.359,-1.786 7.189,5.36 -1.3,1.809 c -2.387,3.324 -5.488,5.941 -9.22,7.779 -3.708,1.826 -7.902,2.752 -12.465,2.752 -7.56,0 -13.963,-2.508 -19.031,-7.453 -5.082,-4.96 -7.659,-11.135 -7.659,-18.351 0,-6.168 2.115,-11.76 6.295,-16.629 5.008,-5.765 11.9,-8.688 20.486,-8.688 4.465,0 8.587,0.862 12.25,2.562 3.691,1.712 6.815,4.172 9.284,7.309 l 1.432,1.82 -7.152,5.393 z"
             style="fill:#4c4b49;fill-opacity:1;fill-rule:nonzero;stroke:none"
             id="path66"
             inkscape:connector-curvature="0" /></g><g
           id="g68"
           transform="translate(562.1154,95.6987)"><path
             d="m 0,0 c 0,-4.371 -0.252,-5.904 -0.414,-6.476 -0.357,-1.356 -0.919,-2.583 -1.673,-3.647 -0.405,-0.571 -1.424,-1.387 -3.98,-2.025 -2.765,-0.692 -4.254,-0.6 -5.015,-0.403 l -0.281,0.073 h -0.29 c -1.406,0 -2.771,0.324 -4.175,0.989 -1.323,0.626 -2.288,1.373 -2.867,2.22 -0.606,0.886 -1.002,2.055 -1.18,3.475 l -0.017,0.11 C -19.945,-5.377 -20.07,-4.209 -20.07,0 v 29.59 h -9.054 V 0 c 0,-4.857 0.314,-8.208 0.954,-10.222 1.026,-3.342 3.08,-6.072 6.106,-8.113 2.963,-1.999 6.548,-3.013 10.655,-3.013 6.377,0 10.842,1.06 13.648,3.24 2.728,2.119 4.584,4.678 5.517,7.605 C 8.629,-7.763 9.053,-4.327 9.053,0 V 29.59 H 0 Z"
             style="fill:#4c4b49;fill-opacity:1;fill-rule:nonzero;stroke:none"
             id="path70"
             inkscape:connector-curvature="0" /></g><g
           id="g72"
           transform="translate(619.6594,124.5556)"><path
             d="M 0,0 -16.792,-34.261 -33.783,0 h -4.107 l -7.087,-49.808 h 8.961 l 3.674,27.244 13.545,-27.244 h 3.975 l 13.343,27.016 3.693,-27.016 h 9.084 L 4.11,0 Z"
             style="fill:#4c4b49;fill-opacity:1;fill-rule:nonzero;stroke:none"
             id="path74"
             inkscape:connector-curvature="0" /></g><g
           id="g76"
           transform="translate(634.9553,74.7475)"><path
             d="M 0,0 H 30.301 V 9.023 H 9.054 v 13.232 h 13.065 v 8.931 H 9.054 v 9.63 h 21.43 v 8.992 L 0,49.808 Z"
             style="fill:#4c4b49;fill-opacity:1;fill-rule:nonzero;stroke:none"
             id="path78"
             inkscape:connector-curvature="0" /></g><g
           id="g80"
           transform="translate(700.926,93.7075)"><path
             d="m 0,0 -26.799,30.848 h -4.278 V -18.96 h 9.236 V 11.471 L 4.655,-18.96 H 8.992 V 30.848 H 0 Z"
             style="fill:#4c4b49;fill-opacity:1;fill-rule:nonzero;stroke:none"
             id="path82"
             inkscape:connector-curvature="0" /></g><g
           id="g84"
           transform="translate(711.8859,115.6245)"><path
             d="m 0,0 h 10.104 v -40.877 h 9.145 V 0 H 29.385 V 8.931 H 0 Z"
             style="fill:#4c4b49;fill-opacity:1;fill-rule:nonzero;stroke:none"
             id="path86"
             inkscape:connector-curvature="0" /></g><g
           id="g88"
           transform="translate(743.2072,74.7475)"><path
             d="M 0,0 H 30.301 V 9.023 H 9.054 v 13.232 h 13.065 v 8.931 H 9.054 v 9.63 h 21.43 v 8.992 L 0,49.808 Z"
             style="fill:#4c4b49;fill-opacity:1;fill-rule:nonzero;stroke:none"
             id="path90"
             inkscape:connector-curvature="0" /></g><g
           id="g92"
           transform="translate(792.9025,104.6816)"><path
             d="m 0,0 -5.535,0.044 v 10.869 h 5.7 c 3.676,0 5.212,-0.402 5.799,-0.642 C 6.864,9.904 7.58,9.307 8.151,8.446 8.729,7.576 9.01,6.638 9.01,5.579 9.01,4.441 8.731,3.451 8.16,2.554 7.615,1.7 6.862,1.093 5.857,0.699 5.042,0.38 3.361,0 0,0 m 7.349,-8.29 c 0.9,0.264 1.849,0.62 2.853,1.067 2.576,1.149 4.592,2.864 5.989,5.095 1.384,2.21 2.086,4.802 2.086,7.707 0,3.482 -1.029,6.482 -3.06,8.916 -2.008,2.406 -4.633,3.992 -7.803,4.713 -1.975,0.448 -5.484,0.666 -10.728,0.666 h -11.274 v -49.808 h 9.053 V -8.87 h 2.358 L 9.797,-29.934 h 10.884 z"
             style="fill:#4c4b49;fill-opacity:1;fill-rule:nonzero;stroke:none"
             id="path94"
             inkscape:connector-curvature="0" /></g><path
           style="fill:none;stroke:#000000;stroke-width:0.75px;stroke-linecap:butt;stroke-linejoin:miter;stroke-opacity:1"
           d="M 0,-5.2913336e-6 V 198.42519 h 850.39367 l 8e-5,-198.4251952913336 z"
           id="path908"
           inkscape:connector-curvature="0" /></g></g></g></svg>